…
## Summary of CMNN Burden Findings

Nigeria and Uganda have a high CMNN disease burden that both decreases
over time. Egypt has a 3-4 fold lower CMNN disease burden that also
decreases over time. The CMNN disease burden of Nigeria and Uganda
decreases at a higher rate than that of Egypt.

# Non-Communicable Disease Burden (NCD)

This data shows the NCD burden in Egypt, Nigeria and Uganda over time.

## Table of Estimates for NCD Burden Over Time

    ## # A tibble: 30 × 4
    ##     Year  Egypt Nigeria Uganda
    ##    <dbl>  <dbl>   <dbl>  <dbl>
    ##  1  1990 32401.  23994. 22728.
    ##  2  1991 31805.  24006. 23207.
    ##  3  1992 31146.  24073. 23368.
    ##  4  1993 31244.  24103. 23710.
    ##  5  1994 31168.  24068. 24026.
    ##  6  1995 30480.  23947. 24297.
    ##  7  1996 30075.  23875. 24516.
    ##  8  1997 29983.  23852. 24611.
    ##  9  1998 29685.  23845. 24812.
    ## 10  1999 29413.  23833. 24846.
    ## # ℹ 20 more rows
…
